^C:\USERS\ANGEL\DESKTOP\C++ PROJECTS\BLACKJACK\SOURCE.CPP
C:\USERS\ANGEL\DESKTOP\C++ PROJECTS\BLACKJACK\DEBUG\VC141.PDB
C:\USERS\ANGEL\DESKTOP\C++ PROJECTS\BLACKJACK\DEBUG\VC141.IDB
C:\USERS\ANGEL\DESKTOP\C++ PROJECTS\BLACKJACK\DEBUG\SOURCE.OBJ
