#Command:  
C:\PROGRAM FILES (X86)\MICROSOFT VISUAL STUDIO\2017\COMMUNITY\VC\TOOLS\MSVC\14.10.25017\BIN\HOSTX86\X86\MICROSOFT.DIAGNOSTICS.TRACING.EVENTSOURCE.DLL
C:\WINDOWS\MICROSOFT.NET\ASSEMBLY\GAC_MSIL\SYSTEM.RUNTIME\V4.0_4.0.0.0__B03F5F7F11D50A3A\SYSTEM.RUNTIME.DLL
C:\WINDOWS\ASSEMBLY\NATIVEIMAGES_V4.0.30319_32\SYSTEM.RUNTIME\638203BD12676882B95665AF5FE88952\SYSTEM.RUNTIME.NI.DLL
C:\WINDOWS\ASSEMBLY\NATIVEIMAGES_V4.0.30319_32\SYSTEM.RUNTIME\638203BD12676882B95665AF5FE88952\SYSTEM.RUNTIME.NI.DLL.AUX
C:\WINDOWS\MICROSOFT.NET\ASSEMBLY\GAC_MSIL\SYSTEM.RUNTIME\V4.0_4.0.0.0__B03F5F7F11D50A3A\SYSTEM.RUNTIME.DLL
C:\WINDOWS\MICROSOFT.NET\ASSEMBLY\GAC_MSIL\SYSTEM.REFLECTION\V4.0_4.0.0.0__B03F5F7F11D50A3A\SYSTEM.REFLECTION.DLL
C:\WINDOWS\ASSEMBLY\NATIVEIMAGES_V4.0.30319_32\SYSTEM.REFLECTION\20E4F7527E1BC449E9E7503D8FFBFFCF\SYSTEM.REFLECTION.NI.DLL
C:\WINDOWS\ASSEMBLY\NATIVEIMAGES_V4.0.30319_32\SYSTEM.REFLECTION\20E4F7527E1BC449E9E7503D8FFBFFCF\SYSTEM.REFLECTION.NI.DLL.AUX
C:\WINDOWS\MICROSOFT.NET\ASSEMBLY\GAC_MSIL\SYSTEM.REFLECTION\V4.0_4.0.0.0__B03F5F7F11D50A3A\SYSTEM.REFLECTION.DLL
C:\WINDOWS\MICROSOFT.NET\ASSEMBLY\GAC_MSIL\SYSTEM.REFLECTION.EXTENSIONS\V4.0_4.0.0.0__B03F5F7F11D50A3A\SYSTEM.REFLECTION.EXTENSIONS.DLL
C:\WINDOWS\ASSEMBLY\NATIVEIMAGES_V4.0.30319_32\SYSTEM.REFL9C203D4D#\39E387FBF87AF2799B4DEFE948A376E4\SYSTEM.REFLECTION.EXTENSIONS.NI.DLL
C:\WINDOWS\ASSEMBLY\NATIVEIMAGES_V4.0.30319_32\SYSTEM.REFL9C203D4D#\39E387FBF87AF2799B4DEFE948A376E4\SYSTEM.REFLECTION.EXTENSIONS.NI.DLL.AUX
C:\WINDOWS\MICROSOFT.NET\ASSEMBLY\GAC_MSIL\SYSTEM.REFLECTION.EXTENSIONS\V4.0_4.0.0.0__B03F5F7F11D50A3A\SYSTEM.REFLECTION.EXTENSIONS.DLL
