^C:\USERS\ANGEL\DESKTOP\C++ PROJECTS\BLACKJACK\SOURCE.CPP
/c /ZI /nologo /W3 /WX- /diagnostics:classic /Od /D _DEBUG /D _CONSOLE /D _UNICODE /D UNICODE /Gm /EHsc /RTC1 /MDd /GS /fp:precise /Zc:wchar_t /Zc:forScope /Zc:inline /Fo"X64\DEBUG\\" /Fd"X64\DEBUG\VC141.PDB" /Gd /TP C:\USERS\ANGEL\DESKTOP\C++ PROJECTS\BLACKJACK\SOURCE.CPP
^C:\USERS\ANGEL\DESKTOP\C++ PROJECTS\BLACKJACK\PLAYER.CPP
/c /ZI /nologo /W3 /WX- /diagnostics:classic /Od /D _DEBUG /D _CONSOLE /D _UNICODE /D UNICODE /Gm /EHsc /RTC1 /MDd /GS /fp:precise /Zc:wchar_t /Zc:forScope /Zc:inline /Fo"X64\DEBUG\\" /Fd"X64\DEBUG\VC141.PDB" /Gd /TP C:\USERS\ANGEL\DESKTOP\C++ PROJECTS\BLACKJACK\PLAYER.CPP
^C:\USERS\ANGEL\DESKTOP\BLACKJACK2\GAME.CPP
/c /ZI /nologo /W3 /WX- /diagnostics:classic /Od /D _DEBUG /D _CONSOLE /D _UNICODE /D UNICODE /Gm /EHsc /RTC1 /MDd /GS /fp:precise /Zc:wchar_t /Zc:forScope /Zc:inline /Fo"X64\DEBUG\\" /Fd"X64\DEBUG\VC141.PDB" /Gd /TP C:\USERS\ANGEL\DESKTOP\BLACKJACK2\GAME.CPP
^C:\USERS\ANGEL\DESKTOP\BLACKJACK2\PLAYER.CPP
/c /ZI /nologo /W3 /WX- /diagnostics:classic /Od /D _DEBUG /D _CONSOLE /D _UNICODE /D UNICODE /Gm /EHsc /RTC1 /MDd /GS /fp:precise /Zc:wchar_t /Zc:forScope /Zc:inline /Fo"X64\DEBUG\\" /Fd"X64\DEBUG\VC141.PDB" /Gd /TP C:\USERS\ANGEL\DESKTOP\BLACKJACK2\PLAYER.CPP
^C:\USERS\ANGEL\DESKTOP\BLACKJACK2\SOURCE.CPP
/c /ZI /nologo /W3 /WX- /diagnostics:classic /Od /D _DEBUG /D _CONSOLE /D _UNICODE /D UNICODE /Gm /EHsc /RTC1 /MDd /GS /fp:precise /Zc:wchar_t /Zc:forScope /Zc:inline /Fo"X64\DEBUG\\" /Fd"X64\DEBUG\VC141.PDB" /Gd /TP C:\USERS\ANGEL\DESKTOP\BLACKJACK2\SOURCE.CPP
