^C:\USERS\ANGEL\DESKTOP\C++ PROJECTS\BLACKJACK\X64\DEBUG\SOURCE.OBJ
/OUT:"C:\USERS\ANGEL\DESKTOP\C++ PROJECTS\BLACKJACK\X64\DEBUG\BLACKJACK.EXE" /INCREMENTAL /NOLOGO KERNEL32.LIB USER32.LIB GDI32.LIB WINSPOOL.LIB COMDLG32.LIB ADVAPI32.LIB SHELL32.LIB OLE32.LIB OLEAUT32.LIB UUID.LIB ODBC32.LIB ODBCCP32.LIB /MANIFEST /MANIFESTUAC:"level='asInvoker' uiAccess='false'" /manifest:embed /DEBUG:FASTLINK /PDB:"C:\USERS\ANGEL\DESKTOP\C++ PROJECTS\BLACKJACK\X64\DEBUG\BLACKJACK.PDB" /SUBSYSTEM:CONSOLE /TLBID:1 /DYNAMICBASE /NXCOMPAT /IMPLIB:"C:\USERS\ANGEL\DESKTOP\C++ PROJECTS\BLACKJACK\X64\DEBUG\BLACKJACK.LIB" /MACHINE:X64 X64\DEBUG\SOURCE.OBJ
^C:\USERS\ANGEL\DESKTOP\C++ PROJECTS\BLACKJACK\X64\DEBUG\PLAYER.OBJ|C:\USERS\ANGEL\DESKTOP\C++ PROJECTS\BLACKJACK\X64\DEBUG\SOURCE.OBJ
/OUT:"C:\USERS\ANGEL\DESKTOP\C++ PROJECTS\BLACKJACK\X64\DEBUG\BLACKJACK.EXE" /INCREMENTAL /NOLOGO KERNEL32.LIB USER32.LIB GDI32.LIB WINSPOOL.LIB COMDLG32.LIB ADVAPI32.LIB SHELL32.LIB OLE32.LIB OLEAUT32.LIB UUID.LIB ODBC32.LIB ODBCCP32.LIB /MANIFEST /MANIFESTUAC:"level='asInvoker' uiAccess='false'" /manifest:embed /DEBUG:FASTLINK /PDB:"C:\USERS\ANGEL\DESKTOP\C++ PROJECTS\BLACKJACK\X64\DEBUG\BLACKJACK.PDB" /SUBSYSTEM:CONSOLE /TLBID:1 /DYNAMICBASE /NXCOMPAT /IMPLIB:"C:\USERS\ANGEL\DESKTOP\C++ PROJECTS\BLACKJACK\X64\DEBUG\BLACKJACK.LIB" /MACHINE:X64 X64\DEBUG\PLAYER.OBJX64\DEBUG\SOURCE.OBJ
^C:\USERS\ANGEL\DESKTOP\BLACKJACK2\X64\DEBUG\GAME.OBJ|C:\USERS\ANGEL\DESKTOP\BLACKJACK2\X64\DEBUG\PLAYER.OBJ|C:\USERS\ANGEL\DESKTOP\BLACKJACK2\X64\DEBUG\SOURCE.OBJ
/OUT:"C:\USERS\ANGEL\DESKTOP\BLACKJACK2\X64\DEBUG\BLACKJACK.EXE" /INCREMENTAL /NOLOGO KERNEL32.LIB USER32.LIB GDI32.LIB WINSPOOL.LIB COMDLG32.LIB ADVAPI32.LIB SHELL32.LIB OLE32.LIB OLEAUT32.LIB UUID.LIB ODBC32.LIB ODBCCP32.LIB /MANIFEST /MANIFESTUAC:"level='asInvoker' uiAccess='false'" /manifest:embed /DEBUG:FASTLINK /PDB:"C:\USERS\ANGEL\DESKTOP\BLACKJACK2\X64\DEBUG\BLACKJACK.PDB" /SUBSYSTEM:CONSOLE /TLBID:1 /DYNAMICBASE /NXCOMPAT /IMPLIB:"C:\USERS\ANGEL\DESKTOP\BLACKJACK2\X64\DEBUG\BLACKJACK.LIB" /MACHINE:X64 X64\DEBUG\GAME.OBJX64\DEBUG\PLAYER.OBJX64\DEBUG\SOURCE.OBJ
